{
	"0" : {
		"ssid"		: "murtechbuoy",
		"encryption"	: "WPA2PSK",
		"key" 		: "f5a66cc210"
	},
	"1" : {
		"ssid"		: "BillsiPhone",
		"encryption"	: "WPA2PSK",
		"key" 		: "1ftgcp399npvc"
	},
	"2" : {
		"ssid"		: "xpivot",
		"encryption"	: "WPA2PSK",
		"key"		: "732af574f218ee01e33e18b474"
	},
	"3" : {
		"ssid"		: "ATT288",
		"encryption"	: "WPA2PSK",
		"key"		: "3128258736"
	},
	"4" : {
		"ssid"		: "ATT272",
		"encryption"	: "WPA2PSK",
		"key"		: "6473525579"
	}
}
